%YAML 1.1
%TAG !u! tag:unity3d.com,2011:
--- !u!1 &8029346051596132372
GameObject:
  m_ObjectHideFlags: 0
  m_CorrespondingSourceObject: {fileID: 0}
  m_PrefabInstance: {fileID: 0}
  m_PrefabAsset: {fileID: 0}
  serializedVersion: 6
  m_Component:
  - component: {fileID: 848678001609391036}
  - component: {fileID: 6831150986595800684}
  - component: {fileID: 2922562509078268392}
  m_Layer: 0
  m_Name: car_yellow_3
  m_TagString: Untagged
  m_Icon: {fileID: 0}
  m_NavMeshLayer: 0
  m_StaticEditorFlags: 0
  m_IsActive: 1
--- !u!4 &848678001609391036
Transform:
  m_ObjectHideFlags: 0
  m_CorrespondingSourceObject: {fileID: 0}
  m_PrefabInstance: {fileID: 0}
  m_PrefabAsset: {fileID: 0}
  m_GameObject: {fileID: 8029346051596132372}
  m_LocalRotation: {x: 0, y: 0, z: 0, w: 1}
  m_LocalPosition: {x: -7.5657654, y: -12.422945, z: 0}
  m_LocalScale: {x: 1, y: 1, z: 1}
  m_Children:
  - {fileID: 2024205963139793940}
  m_Father: {fileID: 0}
  m_RootOrder: 0
  m_LocalEulerAnglesHint: {x: 0, y: 0, z: 0}
--- !u!212 &6831150986595800684
SpriteRenderer:
  m_ObjectHideFlags: 0
  m_CorrespondingSourceObject: {fileID: 0}
  m_PrefabInstance: {fileID: 0}
  m_PrefabAsset: {fileID: 0}
  m_GameObject: {fileID: 8029346051596132372}
  m_Enabled: 1
  m_CastShadows: 0
  m_ReceiveShadows: 0
  m_DynamicOccludee: 1
  m_MotionVectors: 1
  m_LightProbeUsage: 1
  m_ReflectionProbeUsage: 1
  m_RayTracingMode: 0
  m_RenderingLayerMask: 1
  m_RendererPriority: 0
  m_Materials:
  - {fileID: 10754, guid: 0000000000000000f000000000000000, type: 0}
  m_StaticBatchInfo:
    firstSubMesh: 0
    subMeshCount: 0
  m_StaticBatchRoot: {fileID: 0}
  m_ProbeAnchor: {fileID: 0}
  m_LightProbeVolumeOverride: {fileID: 0}
  m_ScaleInLightmap: 1
  m_ReceiveGI: 1
  m_PreserveUVs: 0
  m_IgnoreNormalsForChartDetection: 0
  m_ImportantGI: 0
  m_StitchLightmapSeams: 1
  m_SelectedEditorRenderState: 0
  m_MinimumChartSize: 4
  m_AutoUVMaxDistance: 0.5
  m_AutoUVMaxAngle: 89
  m_LightmapParameters: {fileID: 0}
  m_SortingLayerID: 0
  m_SortingLayer: 0
  m_SortingOrder: 51
  m_Sprite: {fileID: 21300000, guid: 2176065aa02ebd84c9787261d217d22c, type: 3}
  m_Color: {r: 1, g: 1, b: 1, a: 1}
  m_FlipX: 0
  m_FlipY: 0
  m_DrawMode: 0
  m_Size: {x: 1.2727273, y: 2.3818183}
  m_AdaptiveModeThreshold: 0.5
  m_SpriteTileMode: 0
  m_WasSpriteAssigned: 1
  m_MaskInteraction: 0
  m_SpriteSortPoint: 0
--- !u!70 &2922562509078268392
CapsuleCollider2D:
  m_ObjectHideFlags: 0
  m_CorrespondingSourceObject: {fileID: 0}
  m_PrefabInstance: {fileID: 0}
  m_PrefabAsset: {fileID: 0}
  m_GameObject: {fileID: 8029346051596132372}
  m_Enabled: 1
  m_Density: 1
  m_Material: {fileID: 0}
  m_IsTrigger: 0
  m_UsedByEffector: 0
  m_UsedByComposite: 0
  m_Offset: {x: 0, y: 0}
  m_Size: {x: 1.2727273, y: 2.3818183}
  m_Direction: 0
--- !u!1001 &939765823194782480
PrefabInstance:
  m_ObjectHideFlags: 0
  serializedVersion: 2
  m_Modification:
    m_TransformParent: {fileID: 848678001609391036}
    m_Modifications:
    - target: {fileID: 1233375588828258052, guid: 6e791eb18f995a847aa411ac973ad4de,
        type: 3}
      propertyPath: m_RootOrder
      value: 0
      objectReference: {fileID: 0}
    - target: {fileID: 1233375588828258052, guid: 6e791eb18f995a847aa411ac973ad4de,
        type: 3}
      propertyPath: m_LocalPosition.x
      value: 0.326
      objectReference: {fileID: 0}
    - target: {fileID: 1233375588828258052, guid: 6e791eb18f995a847aa411ac973ad4de,
        type: 3}
      propertyPath: m_LocalPosition.y
      value: -0.898
      objectReference: {fileID: 0}
    - target: {fileID: 1233375588828258052, guid: 6e791eb18f995a847aa411ac973ad4de,
        type: 3}
      propertyPath: m_LocalPosition.z
      value: 0
      objectReference: {fileID: 0}
    - target: {fileID: 1233375588828258052, guid: 6e791eb18f995a847aa411ac973ad4de,
        type: 3}
      propertyPath: m_LocalRotation.w
      value: 0.50528085
      objectReference: {fileID: 0}
    - target: {fileID: 1233375588828258052, guid: 6e791eb18f995a847aa411ac973ad4de,
        type: 3}
      propertyPath: m_LocalRotation.x
      value: 0
      objectReference: {fileID: 0}
    - target: {fileID: 1233375588828258052, guid: 6e791eb18f995a847aa411ac973ad4de,
        type: 3}
      propertyPath: m_LocalRotation.y
      value: 0
      objectReference: {fileID: 0}
    - target: {fileID: 1233375588828258052, guid: 6e791eb18f995a847aa411ac973ad4de,
        type: 3}
      propertyPath: m_LocalRotation.z
      value: 0.862955
      objectReference: {fileID: 0}
    - target: {fileID: 1233375588828258052, guid: 6e791eb18f995a847aa411ac973ad4de,
        type: 3}
      propertyPath: m_LocalEulerAnglesHint.x
      value: 0
      objectReference: {fileID: 0}
    - target: {fileID: 1233375588828258052, guid: 6e791eb18f995a847aa411ac973ad4de,
        type: 3}
      propertyPath: m_LocalEulerAnglesHint.y
      value: 0
      objectReference: {fileID: 0}
    - target: {fileID: 1233375588828258052, guid: 6e791eb18f995a847aa411ac973ad4de,
        type: 3}
      propertyPath: m_LocalEulerAnglesHint.z
      value: 119.3
      objectReference: {fileID: 0}
    - target: {fileID: 2141307336452608278, guid: 6e791eb18f995a847aa411ac973ad4de,
        type: 3}
      propertyPath: m_Color.a
      value: 0.8666667
      objectReference: {fileID: 0}
    - target: {fileID: 2141307336452608278, guid: 6e791eb18f995a847aa411ac973ad4de,
        type: 3}
      propertyPath: m_Color.b
      value: 0.12335351
      objectReference: {fileID: 0}
    - target: {fileID: 2141307336452608278, guid: 6e791eb18f995a847aa411ac973ad4de,
        type: 3}
      propertyPath: m_Color.g
      value: 0.39189848
      objectReference: {fileID: 0}
    - target: {fileID: 2141307336452608278, guid: 6e791eb18f995a847aa411ac973ad4de,
        type: 3}
      propertyPath: m_Color.r
      value: 0.7924528
      objectReference: {fileID: 0}
    - target: {fileID: 6354141155973161228, guid: 6e791eb18f995a847aa411ac973ad4de,
        type: 3}
      propertyPath: m_Name
      value: Fire
      objectReference: {fileID: 0}
    m_RemovedComponents: []
  m_SourcePrefab: {fileID: 100100000, guid: 6e791eb18f995a847aa411ac973ad4de, type: 3}
--- !u!4 &2024205963139793940 stripped
Transform:
  m_CorrespondingSourceObject: {fileID: 1233375588828258052, guid: 6e791eb18f995a847aa411ac973ad4de,
    type: 3}
  m_PrefabInstance: {fileID: 939765823194782480}
  m_PrefabAsset: {fileID: 0}
